…
```R
julia_library("RankCompV3")
result <- julia_do.call("reoa",list(use_testdata="yes"),need_return="Julia",show_value=FALSE)
```

The analysis results and a few plots will be generated and saved in the current work directory. They are also returned by the `reoa` function and can be captured by assign the returned values to a variable,  e.g., `result` in the above example.  

The first return value is a DataFrame, where rows are genes and columns are statistical values for each gene. All the genes passing the basic preprocessing step are retained. 


```R
> result
Julia Object of type Tuple{DataFrames.DataFrame, DataFrames.DataFrame, DataFrames.DataFrame}.
(19999×16 DataFrame
   Row │ Name     pval        padj        n11      n12      n13      n21       ⋯
       │ String   Float64     Float64     Float64  Float64  Float64  Float64   ⋯
───────┼────────────────────────────────────────────────────────────────────────
     1 │ DE1      0.237557    0.719072     1531.0     75.0      0.0   1213.0   ⋯
     2 │ DE2      0.280253    0.762245     2276.0    285.0      0.0    978.0
     3 │ DE3      0.0578256   0.358368     1574.0     37.0      0.0   1375.0
     4 │ DE4      0.155619    0.595079     1539.0    139.0      0.0    760.0
     5 │ DE5      0.0432114   0.30634      1166.0     12.0      0.0   1582.0   ⋯
     6 │ DE6      0.0572817   0.356322     1583.0     70.0      0.0    909.0
     7 │ DE7      0.00925067  0.123914     2182.0     64.0      0.0   3608.0
     8 │ DE8      0.036411    0.278039     1927.0     69.0      0.0   2155.0
   ⋮   │    ⋮         ⋮           ⋮          ⋮        ⋮        ⋮        ⋮      ⋱
 19993 │ EE19994  0.0833578   0.438012     1719.0    353.0      0.0   1143.0   ⋯
 19994 │ EE19995  0.0457029   0.316136     1840.0    215.0      0.0   1323.0
 19995 │ EE19996  0.843871    0.999171     1103.0    276.0      0.0    440.0
 19996 │ EE19997  6.70797e-5  0.00465755   1248.0     25.0      0.0   2058.0
 19997 │ EE19998  0.909702    1.0          1112.0    136.0      0.0    931.0   ⋯
 19998 │ EE19999  0.348734    0.827127     1475.0    304.0      0.0   1752.0
 19999 │ EE20000  0.699539    0.981932     1576.0    313.0      0.0    970.0
                                                9 columns and 19984 rows omitted, 19999×6 DataFrame
…
